dulion was online at 21:34 Friday December 3 for 03 hours and 03 minutes from 144.80.74.55

gracia was online at 21:45 Thursday December 2 for 47 minutes from 144.80.70.71

may was online at 21:41 Thursday December 2 for 52 minutes from 144.80.70.71

gress was online at 19:01 Thursday December 2 for 14 minutes from 144.80.70.74

gress was online at 13:58 Thursday December 2 for 10 minutes from 144.80.65.94

tvarozna was online at 10:43 Thursday December 2 for 03 minutes from 144.80.66.86

conlen was online at 10:37 Thursday December 2 for 28 minutes from 144.80.65.47

cole was online at 10:34 Thursday December 2 for 02 hours and 53 minutes from 144.80.143.137

may was online at 10:29 Thursday December 2 for 36 minutes from 144.80.66.90

peters was online at 10:22 Thursday December 2 for 27 minutes from 144.80.66.78

dulion was online at 10:13 Thursday December 2 for 32 minutes from 144.80.66.84

may was online at 10:07 Thursday December 2 for 22 minutes from 144.80.66.90

shea was online at 10:06 Thursday December 2 for 53 minutes from 144.80.66.83

gula was online at 09:57 Thursday December 2 for 56 minutes from 144.80.66.81

may was online at 09:56 Thursday December 2 for 06 minutes from 144.80.66.90

giffen was online at 09:52 Thursday December 2 for 41 minutes from 144.80.65.43

villano was online at 09:49 Thursday December 2 for 01 hours and 16 minutes from 144.80.66.85

frantzen was online at 09:48 Thursday December 2 for 59 minutes from 144.80.66.95

shea was online at 09:48 Thursday December 2 for 16 minutes from 144.80.66.83

tvarozna was online at 09:46 Thursday December 2 for 53 minutes from 144.80.66.86

gattu was online at 09:46 Thursday December 2 for 56 minutes from 144.80.66.82

good was online at 09:46 Thursday December 2 for 01 hours and 07 minutes from 144.80.66.94

valentin was online at 09:46 Thursday December 2 for 01 hours and 15 minutes from 144.80.66.80

dulion was online at 09:45 Thursday December 2 for 27 minutes from 144.80.66.84

gress was online at 09:45 Thursday December 2 for 42 minutes from 144.80.66.92

gula was online at 09:45 Thursday December 2 for 01 minutes from 144.80.139.229

shumaker was online at 09:45 Thursday December 2 for 01 hours and 04 minutes from 144.80.66.96

peterson was online at 09:44 Thursday December 2 for 01 hours and 25 minutes from 144.80.66.79

shar was online at 09:44 Thursday December 2 for 01 hours and 10 minutes from 144.80.65.51

balega was online at 09:44 Thursday December 2 for 01 hours and 12 minutes from 144.80.66.91

cromer was online at 09:44 Thursday December 2 for 54 minutes from 144.80.65.46

gracia was online at 09:43 Thursday December 2 for 01 hours and 13 minutes from 144.80.66.89

may was online at 09:43 Thursday December 2 for 12 minutes from 144.80.66.90

kiel was online at 09:43 Thursday December 2 for 01 hours and 09 minutes from 144.80.64.149

homan was online at 09:43 Thursday December 2 for 01 hours and 15 minutes from 144.80.65.50

hartzel was online at 09:43 Thursday December 2 for 01 hours and 19 minutes from 144.80.65.45

peters was online at 09:42 Thursday December 2 for 31 minutes from 144.80.66.78

valentin was online at 09:40 Thursday December 2 for 02 minutes from 144.80.145.190

villano was online at 09:21 Thursday December 2 for 18 minutes from 144.80.61.40

tvarozna was online at 09:06 Thursday December 2 for 01 minutes from 144.80.7.252

hartzel was online at 09:05 Thursday December 2 for 04 minutes from 144.80.185.113

villano was online at 09:03 Thursday December 2 for 06 minutes from 144.80.61.40

tvarozna was online at 08:52 Thursday December 2 for 02 hours and 11 minutes from 144.80.7.252

kiel was online at 08:17 Thursday December 2 for 17 minutes from 144.80.70.75

gattu was online at 08:12 Thursday December 2 for 56 minutes from 144.80.66.63

tvarozna was online at 08:06 Thursday December 2 for 02 hours and 24 minutes from 144.80.7.252

villano was online at 08:03 Thursday December 2 for 59 minutes from 144.80.61.40

gula was online at 08:03 Thursday December 2 for 15 minutes from 144.80.139.229

hartzel was online at 08:01 Thursday December 2 for 01 hours and 03 minutes from 144.80.185.113

gress was online at 07:20 Thursday December 2 for 02 hours and 05 minutes from 144.80.74.54

gracia was online at 05:40 Thursday December 2 for 10 minutes from 144.80.74.72

gracia was online at 04:23 Thursday December 2 for 03 hours and 27 minutes from 144.80.74.72

valentin was online at 02:20 Thursday December 2 for 15 minutes from 144.80.70.110

hartzel was online at 00:21 Thursday December 2 for 23 minutes from 144.80.110.100

hartzel was online at 00:17 Thursday December 2 for 03 minutes from 144.80.110.100

gracia was online at 22:41 Wednesday December 1 for 04 hours and 37 minutes from 144.80.74.30

shar was online at 21:38 Wednesday December 1 for 09 minutes from 144.80.110.77

shar was online at 21:20 Wednesday December 1 for 15 minutes from 144.80.110.77

hartzel was online at 19:49 Wednesday December 1 for 01 hours and 24 minutes from 144.80.74.34

balega was online at 19:49 Wednesday December 1 for 26 minutes from 144.80.5.181

balega was online at 18:52 Wednesday December 1 for 45 minutes from 144.80.5.181

tvarozna was online at 18:10 Wednesday December 1 for 16 minutes from 144.80.70.61

tvarozna was online at 18:07 Wednesday December 1 for 02 minutes from 144.80.70.61

frantzen was online at 18:03 Wednesday December 1 for 01 minutes from 144.80.70.66

shar was online at 16:50 Wednesday December 1 for 17 minutes from 144.80.110.66

gula was online at 16:37 Wednesday December 1 for 26 minutes from 144.80.70.85

gula was online at 16:35 Wednesday December 1 for 01 minutes from 144.80.70.101

villano was online at 16:06 Wednesday December 1 for 31 minutes from 144.80.110.100

giffen was online at 14:34 Wednesday December 1 for 10 minutes from 144.80.132.22

giffen was online at 14:14 Wednesday December 1 for 02 hours and 13 minutes from 144.80.132.22

tvarozna was online at 13:54 Wednesday December 1 for 02 minutes from 144.80.121.18

balega was online at 13:50 Wednesday December 1 for 02 hours and 09 minutes from 144.80.5.181

tvarozna was online at 13:47 Wednesday December 1 for 06 minutes from 144.80.121.18

giffen was online at 13:14 Wednesday December 1 for 59 minutes from 144.80.132.22

giffen was online at 12:29 Wednesday December 1 for 01 minutes from 144.80.132.22

giffen was online at 11:57 Wednesday December 1 for 29 minutes from 144.80.132.22

giffen was online at 11:53 Wednesday December 1 for 01 minutes from 144.80.132.22

giffen was online at 11:37 Wednesday December 1 for 11 minutes from 144.80.132.22

reboot is still online at 09:37 Wednesday December 1 from IP: 5.11.0-41-generi

jshyrock was online at 09:34 Wednesday December 1 for 03 minutes from :1

peterson was online at 00:16 Wednesday December 1 for 02 minutes from 144.80.70.99

valentin was online at 23:07 Tuesday November 30 for 57 minutes from 144.80.74.33

gress was online at 22:43 Tuesday November 30 for 01 hours and 47 minutes from 144.80.74.29

valentin was online at 22:09 Tuesday November 30 for 01 hours and 56 minutes from 144.80.74.33

balega was online at 20:00 Tuesday November 30 for 02 hours and 34 minutes from 144.80.5.181

valentin was online at 19:59 Tuesday November 30 for 03 hours and 17 minutes from 144.80.74.33

valentin was online at 19:44 Tuesday November 30 for 04 hours and 22 minutes from 144.80.74.33

peterson was online at 18:37 Tuesday November 30 for 06 hours and 10 minutes from 144.80.70.71

giffen was online at 15:44 Tuesday November 30 for  from 144.80.132.22

hartmann was online at 15:05 Tuesday November 30 for 42 minutes from 144.80.110.74

gattu was online at 14:03 Tuesday November 30 for 02 hours and 20 minutes from 144.80.74.54

shar was online at 10:00 Tuesday November 30 for 48 minutes from 144.80.90.186

gracia was online at 09:58 Tuesday November 30 for 55 minutes from 144.80.66.89

good was online at 09:57 Tuesday November 30 for 55 minutes from 144.80.66.94

may was online at 09:56 Tuesday November 30 for 56 minutes from 144.80.66.90

gattu was online at 09:52 Tuesday November 30 for 01 hours from 144.80.66.82

homan was online at 09:51 Tuesday November 30 for 01 hours and 02 minutes from 144.80.65.50

shar was online at 09:51 Tuesday November 30 for 08 minutes from 144.80.90.186

conlen was online at 09:51 Tuesday November 30 for 01 hours from 144.80.66.81

jchrispe was online at 09:51 Tuesday November 30 for 01 hours and 02 minutes from 144.80.65.204

balega was online at 09:51 Tuesday November 30 for 53 minutes from 144.80.5.181

shea was online at 09:51 Tuesday November 30 for 53 minutes from 144.80.134.145

giffen was online at 09:51 Tuesday November 30 for 01 hours and 01 minutes from 144.80.65.43

shar was online at 09:51 Tuesday November 30 for  from 144.80.90.186

dulion was online at 09:51 Tuesday November 30 for 01 hours and 10 minutes from 144.80.62.252

balega was online at 09:51 Tuesday November 30 for  from 144.80.5.181

hartzel was online at 09:51 Tuesday November 30 for 01 hours and 02 minutes from 144.80.65.45

villano was online at 09:50 Tuesday November 30 for 01 hours and 02 minutes from 144.80.61.40

valentin was online at 09:50 Tuesday November 30 for 01 hours and 02 minutes from 144.80.66.80

peterson was online at 09:49 Tuesday November 30 for 01 hours and 03 minutes from 144.80.66.79

hartmann was online at 09:48 Tuesday November 30 for 25 minutes from 144.80.66.93

kiel was online at 09:46 Tuesday November 30 for 59 minutes from 144.80.64.149

tvarozna was online at 09:46 Tuesday November 30 for 01 hours from 144.80.7.252

gress was online at 09:46 Tuesday November 30 for 01 hours and 05 minutes from 144.80.66.92

frantzen was online at 09:45 Tuesday November 30 for 01 hours and 06 minutes from 144.80.66.95

gula was online at 09:45 Tuesday November 30 for 01 hours and 02 minutes from 144.80.139.229

hartzel was online at 08:27 Tuesday November 30 for 02 minutes from 144.80.186.178

hartmann was online at 19:36 Monday November 29 for 11 minutes from 144.80.70.56

dulion was online at 12:08 Monday November 29 for 01 minutes from 144.80.62.252

dulion was online at 12:05 Monday November 29 for 01 minutes from 144.80.62.252

dulion was online at 11:27 Monday November 29 for 02 minutes from 144.80.62.252

hartmann was online at 10:41 Monday November 29 for 06 minutes from 144.80.110.59

gula was online at 10:15 Monday November 29 for 39 minutes from 144.80.139.229

hartmann was online at 09:13 Monday November 29 for 39 minutes from 144.80.110.52

hartmann was online at 22:05 Sunday November 28 for  from 144.80.74.60

hartmann was online at 19:45 Sunday November 28 for 03 hours and 49 minutes from 144.80.70.76

balega was online at 16:07 Sunday November 28 for 12 minutes from 144.80.5.181

balega was online at 15:34 Sunday November 28 for 33 minutes from 144.80.5.181

hartmann was online at 17:11 Saturday November 27 for 15 minutes from 144.80.110.77

dulion was online at 12:06 Saturday November 27 for 01 hours and 16 minutes from 144.80.110.78

dulion was online at 11:31 Saturday November 27 for 06 minutes from 144.80.110.70

shea was online at 10:32 Saturday November 27 for 02 minutes from 144.80.70.98

hartmann was online at 13:50 Friday November 26 for 19 minutes from 144.80.74.30

